item_id;item_weight;item_value
1;4;49
2;53;19
3;27;80
4;3;40
5;8;70
6;45;62
7;20;37
8;1;69
9;55;53
10;21;17
11;44;45
12;58;55
13;26;78
14;30;11
15;9;32
16;21;40
17;26;18
18;43;48
19;47;11
20;17;5
21;20;5